Project Name,Token,Permission,User ID,User Name,Expiry Date
Project Beta,token456,"read,write",102,Bob,2024/6/30
Project Beta,token456,write,102,Bob,2024/6/30
Project Beta,token456,"read,write",102,mean,2024/3/30
